{
    "variants":[
        {
            "title":"Detail",
            "data":{
                "heading":"Lorem Ipsum Voluptate",
                "classes":"detail",
                "more":{
                    "url":"#",
                    "label":"More People",
                    "icon":"icon icon-profile primary"
                },
                "items":[
                    {},
                    {
                        "accessory":""
                    }
                ]
            }
        },
        {
            "title":"Grid Large",
            "data":{
                "heading":"Lorem Ipsum Voluptate",
                "classes":"grid-large",
                "items":[
                    {},
                    {},
                    {},
                    {}
                ]
            }
        },
        {
            "title":"Grid Small",
            "data":{
                "heading":"Lorem Ipsum Voluptate",
                "classes":"grid-small",
                "items":[
                    {},
                    {},
                    {},
                    {},
                    {},
                    {},
                    {},
                    {},
                    {},
                    {},
                    {},
                    {},
                    {},
                    {},
                    {},
                    {},
                    {},
                    {},
                    {},
                    {},
                    {},
                    {},
                    {},
                    {},
                    {},
                    {},
                    {}
                ]
            }
        }
    ]
}