
{
    "variants":[

        {
            "title":"Collage",
            "data":{
                "heading":"Why Study Engineering at UMass Lowell?",
                "classes":"collage",
                "sections":[
                    {
                        "media":{
                            "type":"image",
                            "url":"/system/template/v5/images/photos/photo-5.jpg"
                        },
                        "heading":"Close Ties with Local Industry",
                        "text":"<p>UMass Lowell is located in the heart of the Massachusetts technology belt and maintains close relationships with local industry that provide a wealth of opportunities for our students.</p><p><a href='#'>View Internships & Programs</a></p>"
                    },
                    {
                        "media":{
                            "type":"image",
                            "url":"/system/template/v5/images/photos/photo-4.jpg",
                            "style":"left"
                        },
                        "heading":"Close Ties with Local Industry",
                        "text":"<p>UMass Lowell is located in the heart of the Massachusetts technology belt and maintains close relationships with local industry that provide a wealth of opportunities for our students.</p><p><a href='#'>View Programs</a></p>"
                    },
                    {
                        "media":{
                            "type":"image",
                            "url":"/system/template/v5/images/photos/photo-3.jpg",
                            "style":"right"
                        },
                        "heading":"Close Ties with Local Industry",
                        "text":"<p>UMass Lowell is located in the heart of the Massachusetts technology belt and maintains close relationships with local industry that provide a wealth of opportunities for our students.</p><p><a href='#'>View Scholorships</a></p>"
                    },
                    {
                        "media":{
                            "type":"image",
                            "url":"/system/template/v5/images/photos/banner14.jpg",
                            "style":"right"
                        },
                        "heading":"Close Ties with Local Industry",
                        "text":"<p>UMass Lowell is located in the heart of the Massachusetts technology belt and maintains close relationships with local industry that provide a wealth of opportunities for our students.</p><p><a href='#'>View Scholorships</a></p>"
                    },
                    {
                        "media":{
                            "type":"image",
                            "url":"/system/template/v5/images/photos/banner03.jpg",
                            "style":"right"
                        },
                        "heading":"Close Ties with Local Industry",
                        "text":"<p>UMass Lowell is located in the heart of the Massachusetts technology belt and maintains close relationships with local industry that provide a wealth of opportunities for our students.</p><p><a href='#'>View Scholorships</a></p>"
                    }
                ]
            }
        },



        {
            "title":"Collage Without a Header",
            "data":{
                "classes":"collage",
                "sections":[
                    {
                        "media":{
                            "type":"image",
                            "url":"/system/template/v5/images/photos/photo-5.jpg"
                        },
                        "heading":"Close Ties with Local Industry",
                        "text":"<p>UMass Lowell is located in the heart of the Massachusetts technology belt and maintains close relationships with local industry that provide a wealth of opportunities for our students.</p><p><a href='#'>View Internships & Programs</a></p>"
                    },
                    {
                        "media":{
                            "type":"image",
                            "url":"/system/template/v5/images/photos/photo-4.jpg",
                            "style":"left"
                        },
                        "heading":"Close Ties with Local Industry",
                        "text":"<p>UMass Lowell is located in the heart of the Massachusetts technology belt and maintains close relationships with local industry that provide a wealth of opportunities for our students.</p><p><a href='#'>View Programs</a></p>"
                    },
                    {
                        "media":{
                            "type":"image",
                            "url":"/system/template/v5/images/photos/photo-3.jpg",
                            "style":"right"
                        },
                        "heading":"Close Ties with Local Industry",
                        "text":"<p>UMass Lowell is located in the heart of the Massachusetts technology belt and maintains close relationships with local industry that provide a wealth of opportunities for our students.</p><p><a href='#'>View Scholorships</a></p>"
                    },
                    {
                        "media":{
                            "type":"image",
                            "url":"/system/template/v5/images/photos/photo-3.jpg",
                            "style":"right"
                        },
                        "heading":"Close Ties with Local Industry",
                        "text":"<p>UMass Lowell is located in the heart of the Massachusetts technology belt and maintains close relationships with local industry that provide a wealth of opportunities for our students.</p><p><a href='#'>View Scholorships</a></p>"
                    }
                ]
            }
        },

        {
            "title":"Just Text",
            "data":{ 
                "heading":"Lorem Ipsum Voluptate",
                "text":"<img src='http://www.uml.edu/Images/Nighthawk_tcm18-145883.jpg' class='noTreatment' title='Nighthawk' alt='Nighthawk' style='float: left; width: 120px; height: 200px;'><p>Lorem ipsum Voluptate culpa culpa occaecat fugiat magna nostrud laborum dolor ullamco nostrud dolore sit exercitation eu in esse enim in sint et cupidatat adipisicing aliquip eiusmod officia.</p><h3>Duis Ut Ut Fugiat</h3><p>Lorem ipsum In Duis ut ut fugiat dolore dolor et tempor cillum occaecat ea Ut anim deserunt do cupidatat id aliquip voluptate esse aliqua veniam ex occaecat sed cupidatat sunt id sunt officia ut.</p><ul><li>Lorem Ipsum Voluptate</li><li>Lorem Ipsum Voluptate</li></ul><ol><li>Lorem Ipsum Voluptate</li><li>Lorem Ipsum Voluptate</li><li>Lorem Ipsum Voluptate</li><li>Lorem Ipsum Voluptate</li><li>Lorem Ipsum Voluptate</li><li>Lorem Ipsum Voluptate</li><li>Lorem Ipsum Voluptate</li><li>Lorem Ipsum Voluptate</li><li>Lorem Ipsum Voluptate</li><li>Lorem Ipsum Voluptate</li><li>Lorem Ipsum Voluptate</li><li>Lorem Ipsum Voluptate</li></ol>"
            }
        },
        {
            "title":"With a Video",
            "data":{
                "heading":"Lorem Ipsum Voluptate",
                "sections":[
                    {
                        "media":{
                            "type":"video",
                            "url":"http://www.uml.edu/Brightcove/Video.aspx?video_id=3706509092001"
                        },
                        "text":"<p>Lorem ipsum Voluptate culpa culpa occaecat fugiat magna nostrud laborum dolor ullamco nostrud dolore sit exercitation eu in esse enim in sint et cupidatat adipisicing aliquip eiusmod officia.</p><h3>Duis Ut Ut Fugiat</h3><p>Lorem ipsum In Duis ut ut fugiat dolore dolor et tempor cillum occaecat ea Ut anim deserunt do cupidatat id aliquip voluptate esse aliqua veniam ex occaecat sed cupidatat sunt id sunt officia ut.</p>"
                    }
                ]
            }
        },
        {
            "title":"Multiple Sections",
            "data":{
                "heading":"Lorem Ipsum Voluptate",
                "sections":[
                    {
                        "media":{
                            "type":"video",
                            "url":"http://www.uml.edu/Brightcove/Video.aspx?video_id=3706509092001"
                        },
                        "text":"<p>Lorem ipsum Voluptate culpa culpa occaecat fugiat magna nostrud laborum dolor ullamco nostrud dolore sit exercitation eu in esse enim in sint et cupidatat adipisicing aliquip eiusmod officia.</p><h3>Duis Ut Ut Fugiat</h3><p>Lorem ipsum In Duis ut ut fugiat dolore dolor et tempor cillum occaecat ea Ut anim deserunt do cupidatat id aliquip voluptate esse aliqua veniam ex occaecat sed cupidatat sunt id sunt officia ut.</p>"
                    },
                    {
                        "media":{
                            "type":"image",
                            "url":"/system/template/v5/images/photos/photo-1.jpg",
                            "style":"left"
                        },
                        "text":"<p>Lorem ipsum Voluptate culpa culpa occaecat fugiat magna nostrud laborum dolor ullamco nostrud dolore sit exercitation eu in esse enim in sint et cupidatat adipisicing aliquip eiusmod officia.</p><h3>Duis Ut Ut Fugiat</h3><p>Lorem ipsum In Duis ut ut fugiat dolore dolor et tempor cillum occaecat ea Ut anim deserunt do cupidatat id aliquip voluptate esse aliqua veniam ex occaecat sed cupidatat sunt id sunt officia ut.</p>"
                    }
                ]
            }
        },
        {
            "title":"Three Columns",
            "data":{
                "heading":"Lorem Ipsum Voluptate",
                "classes":"three-columns", 
                "sections":[
                    {
                        "media":{
                            "type":"image",
                            "url":"/system/template/v5/images/photos/photo-1.jpg",
                            "style":"center"
                        },
                        "text":"<p>Lorem ipsum Voluptate culpa culpa occaecat fugiat magna nostrud laborum dolor ullamco nostrud dolore sit exercitation eu in esse enim in sint et cupidatat adipisicing aliquip eiusmod officia.</p>"
                    },
                    {
                        "media":{
                            "type":"image",
                            "url":"/system/template/v5/images/photos/photo-1.jpg",
                            "style":"center"
                        },
                        "text":"<p>Lorem ipsum Voluptate culpa culpa occaecat fugiat magna nostrud laborum dolor ullamco nostrud dolore sit exercitation eu in esse enim in sint et cupidatat adipisicing aliquip eiusmod officia.</p>"
                    },
                    {
                        "media":{
                            "type":"image",
                            "url":"/system/template/v5/images/photos/photo-1.jpg",
                            "style":"center"
                        },
                        "text":"<p>Lorem ipsum Voluptate culpa culpa occaecat fugiat magna nostrud laborum dolor ullamco nostrud dolore sit exercitation eu in esse enim in sint et cupidatat adipisicing aliquip eiusmod officia.</p>"
                    },
                    {
                        "media":{
                            "type":"image",
                            "url":"/system/template/v5/images/photos/photo-1.jpg",
                            "style":"center"
                        },
                        "text":"<p>Lorem ipsum Voluptate culpa culpa occaecat fugiat magna nostrud laborum dolor ullamco nostrud dolore sit exercitation eu in esse enim in sint et cupidatat adipisicing aliquip eiusmod officia.</p>"
                    },
                    {
                        "media":{
                            "type":"image",
                            "url":"/system/template/v5/images/photos/photo-1.jpg",
                            "style":"center"
                        },
                        "text":"<p>Lorem ipsum Voluptate culpa culpa occaecat fugiat magna nostrud laborum dolor ullamco nostrud dolore sit exercitation eu in esse enim in sint et cupidatat adipisicing aliquip eiusmod officia.</p>"
                    },
                    {
                        "media":{
                            "type":"image",
                            "url":"/system/template/v5/images/photos/photo-1.jpg",
                            "style":"center"
                        },
                        "text":"<p>Lorem ipsum Voluptate culpa culpa occaecat fugiat magna nostrud laborum dolor ullamco nostrud dolore sit exercitation eu in esse enim in sint et cupidatat adipisicing aliquip eiusmod officia.</p>"
                    }
                ]
            }
        },
        {
            "title":"Four Columns",
            "data":{
                "heading":"Lorem Ipsum Voluptate",
                "classes":"four-columns", 
                "sections":[
                    {
                        "media":{
                            "type":"image",
                            "url":"/system/template/v5/images/photos/photo-1.jpg",
                            "style":"center"
                        },
                        "text":"<p>Lorem ipsum Voluptate culpa culpa occaecat fugiat magna nostrud laborum dolor ullamco nostrud dolore sit exercitation eu in esse enim in sint et cupidatat adipisicing aliquip eiusmod officia.</p>"
                    },
                    {
                        "media":{
                            "type":"image",
                            "url":"/system/template/v5/images/photos/photo-1.jpg",
                            "style":"center"
                        },
                        "text":"<p>Lorem ipsum Voluptate culpa culpa occaecat fugiat magna nostrud laborum dolor ullamco nostrud dolore sit exercitation eu in esse enim in sint et cupidatat adipisicing aliquip eiusmod officia.</p>"
                    },
                    {
                        "media":{
                            "type":"image",
                            "url":"/system/template/v5/images/photos/photo-1.jpg",
                            "style":"center"
                        },
                        "text":"<p>Lorem ipsum Voluptate culpa culpa occaecat fugiat magna nostrud laborum dolor ullamco nostrud dolore sit exercitation eu in esse enim in sint et cupidatat adipisicing aliquip eiusmod officia.</p>"
                    },
                    {
                        "media":{
                            "type":"image",
                            "url":"/system/template/v5/images/photos/photo-1.jpg",
                            "style":"center"
                        },
                        "text":"<p>Lorem ipsum Voluptate culpa culpa occaecat fugiat magna nostrud laborum dolor ullamco nostrud dolore sit exercitation eu in esse enim in sint et cupidatat adipisicing aliquip eiusmod officia.</p>"
                    }
                ]
            }
        },
        {
            "title":"Resources",
            "data":{  
                "heading":"Resources",
                "classes":"resources",
                "sections":[
                    {
                        "heading":"Lorem ipsum Voluptate",
                        "text":[
                            "<ul>",
                                "<li><a href='#'>Laborum dolor ullamco nostrud</a></li>",
                                "<li><a href='#'>Laborum dolor ullamco nostrud</a></li>",
                                "<li><a href='#'>Laborum dolor ullamco nostrud</a></li>",
                                "<li><a href='#'>Laborum dolor ullamco nostrud</a></li>",
                                "<li><a href='#'>Laborum dolor ullamco nostrud</a></li>",
                            "</ul>"
                        ]
                    },
                    {
                        "heading":"Lorem ipsum Voluptate",
                        "text":[
                            "<ul>",
                                "<li><a href='#'>Laborum dolor ullamco nostrud</a></li>",
                                "<li><a href='#'>Laborum dolor ullamco nostrud</a></li>",
                                "<li><a href='#'>Laborum dolor ullamco nostrud</a></li>",
                                "<li><a href='#'>Laborum dolor ullamco nostrud</a></li>",
                                "<li><a href='#'>Laborum dolor ullamco nostrud</a></li>",
                            "</ul>"
                        ]
                    },
                    {
                        "heading":"Lorem ipsum Voluptate",
                        "text":[
                            "<ul>",
                                "<li><a href='#'>Laborum dolor ullamco nostrud</a></li>",
                                "<li><a href='#'>Laborum dolor ullamco nostrud</a></li>",
                                "<li><a href='#'>Laborum dolor ullamco nostrud</a></li>",
                                "<li><a href='#'>Laborum dolor ullamco nostrud</a></li>",
                                "<li><a href='#'>Laborum dolor ullamco nostrud</a></li>",
                            "</ul>"
                        ]
                    },
                    {
                        "heading":"Lorem ipsum Voluptate",
                        "text":[
                            "<ul>",
                                "<li><a href='#'>Laborum dolor ullamco nostrud</a></li>",
                                "<li><a href='#'>Laborum dolor ullamco nostrud</a></li>",
                                "<li><a href='#'>Laborum dolor ullamco nostrud</a></li>",
                                "<li><a href='#'>Laborum dolor ullamco nostrud</a></li>",
                                "<li><a href='#'>Laborum dolor ullamco nostrud</a></li>",
                            "</ul>"
                        ]
                    }
                ]
                
            }
        }
    ]
}